<?xml version="1.0" encoding="UTF-8"?>
<svg width="8px" height="16px" viewBox="0 0 8 16" version="1.1" xmlns="http://www.w3.org/2000/svg" xmlns:xlink="http://www.w3.org/1999/xlink">
    <!-- Generator: Sketch 55.2 (78181) - https://sketchapp.com -->
    <title>facebook-icon</title>
    <desc>Created with Sketch.</desc>
    <g id="Share-Numbers-+-block-element" stroke="none" stroke-width="1" fill="none" fill-rule="evenodd">
        <g id="01-1-share" transform="translate(-179.000000, -430.000000)" fill="#ACACAC" fill-rule="nonzero">
            <g id="D" transform="translate(27.000000, 34.000000)">
                <g id="Stats" transform="translate(0.000000, 255.000000)">
                    <g id="Group" transform="translate(15.714286, 56.285714)">
                        <path d="M137.850415,88.9874808 L137.850415,90.5235791 L136.285714,90.5235791 L136.285714,93.0120584 L137.850415,93.0120584 L137.850415,100.492857 L140.361759,100.492857 L140.361759,92.9813364 L142.88875,92.9813364 L143.287748,90.4928571 L140.361759,90.4928571 L140.361759,89.2486175 C140.361759,88.5957757 140.580817,87.9813364 141.52746,87.9813364 L143.428571,87.9813364 L143.428571,85.4928571 L140.737287,85.4928571 C138.468471,85.4928571 137.850415,86.959831 137.850415,88.9874808 Z" id="facebook-icon"></path>
                    </g>
                </g>
            </g>
        </g>
    </g>
</svg>